<svg xmlns="http://www.w3.org/2000/svg" xmlns:xlink="http://www.w3.org/1999/xlink" id="terminal" baseProfile="full" viewBox="0 0 640 410" width="640" version="1.1">
    <defs>
        <termtosvg:template_settings xmlns:termtosvg="https://github.com/nbedos/termtosvg">
            <termtosvg:screen_geometry columns="80" rows="24"/>
            <termtosvg:animation type="css"/>
        </termtosvg:template_settings>
        <style type="text/css" id="generated-style"><![CDATA[#screen {
                font-family: 'DejaVu Sans Mono', monospace;
                font-style: normal;
                font-size: 14px;
            }

        text {
            dominant-baseline: text-before-edge;
            white-space: pre;
        }
    ]]></style>
        <style type="text/css" id="user-style">
            .foreground {fill: #d0d0d0;}
            .background {fill: #444444;}
            .color0 {fill: #4E4E4E;}
            .color1 {fill: #D68787;}
            .color2 {fill: #5F865F;}
            .color3 {fill: #D8AF5F;}
            .color4 {fill: #85ADD4;}
            .color5 {fill: #D7AFAF;}
            .color6 {fill: #87AFAF;}
            .color7 {fill: #D0D0D0;}
            .color8  {fill: #626262;}
            .color9  {fill: #D75F87;}
            .color10 {fill: #87AF87;}
            .color11 {fill: #FFD787;}
            .color12 {fill: #ACD4FA;}
            .color13 {fill: #FFAFAF;}
            .color14 {fill: #87D7D7;}
            .color15 {fill: #E4E4E4;}
            font-family: "Inconsolata LGC", monospace;
        </style>
    </defs>
    <svg id="screen" width="640" height="408" viewBox="0 0 640 408" preserveAspectRatio="xMidYMin slice"><rect class="background" height="100%" width="100%" x="0" y="0"/><defs><g id="g1"><text x="0" textLength="8" class="color5">&#10095;</text><text x="8" textLength="8" class="foreground"> </text><text x="16" textLength="48" class="color2">zk-sim</text><text x="64" textLength="8" class="foreground"> </text><text x="72" textLength="472" class="color3">'202207011806 grep and sed multi file text substitution.md'</text><text x="544" textLength="96" class="foreground">            </text></g><g id="g2"><text x="0" textLength="256" class="foreground">202207012011 ANSI color codes.md</text></g><g id="g3"><text x="0" textLength="432" class="foreground">202207011948 Use kill to wait for process to finish.md</text></g><g id="g4"><text x="0" textLength="168" class="foreground">202207011951 patch.md</text></g><g id="g5"><text x="0" textLength="344" class="foreground">202207011803 Minimal safe Bash templates.md</text></g><g id="g6"><text x="0" textLength="280" class="foreground">202206291300 Email from terminal.md</text></g><g id="g7"><text x="0" textLength="352" class="foreground">202207011732 CLI screencast capture tools.md</text></g><g id="g8"><text x="0" textLength="256" class="foreground">202206291231 Xiaomi Mi9t ROMs.md</text></g><g id="g9"><text x="0" textLength="280" class="foreground">202207011801 CLI countdown timer.md</text></g><g id="g10"><text x="0" textLength="296" class="foreground">202207011956 Inline functions in C.md</text></g><g id="g11"><text x="0" textLength="320" class="foreground">202206270003 Electronics tools to buy.md</text></g><g id="g12"><text x="0" textLength="248" class="foreground">202206270030 Pandoc in CMake.md</text></g><g id="g13"><text x="0" textLength="408" class="foreground">202207011946 Getting and setting dbus properties.md</text></g><g id="g14"><text x="0" textLength="328" class="foreground">202207012006 USB protocol and hardware.md</text></g><g id="g15"><text x="0" textLength="376" class="foreground">202207012000 Used oscilloscopes worth buying.md</text></g><g id="g16"><text x="0" textLength="352" class="foreground">202207011728 Other people's zettelkastens.md</text></g><g id="g17"><text x="0" textLength="320" class="foreground">202206301536 CMake variable debugging.md</text></g><g id="g18"><text x="0" textLength="352" class="foreground">202206300000 International money transfer.md</text></g><g id="g19"><text x="0" textLength="256" class="foreground">202206270032 Ergonomic chairs.md</text></g><g id="g20"><text x="0" textLength="288" class="foreground">202206270004 Xiaomi Air purifyers.md</text></g><g id="g21"><text x="0" textLength="344" class="foreground">202205161918 C++ job interview questions.md</text></g><g id="g22"><text x="0" textLength="112" class="color4">~/zettelkasten</text><text x="112" textLength="8" class="foreground"> </text><text x="120" textLength="48" fill="#6c6c6c">master</text><text x="168" textLength="8" fill="#ffafd7">*</text><text x="176" textLength="464" class="foreground">                                                          </text></g><g id="g23"><text x="0" textLength="8" class="color5">&#10095;</text><text x="8" textLength="8" class="foreground"> </text><text x="16" textLength="8" class="background"> </text><text x="24" textLength="616" class="foreground">                                                                             </text></g></defs><g><use xlink:href="#g1" y="0"/><use xlink:href="#g2" y="17"/><use xlink:href="#g3" y="34"/><use xlink:href="#g4" y="51"/><use xlink:href="#g5" y="68"/><use xlink:href="#g6" y="85"/><use xlink:href="#g7" y="102"/><use xlink:href="#g8" y="119"/><use xlink:href="#g9" y="136"/><use xlink:href="#g10" y="153"/><use xlink:href="#g11" y="170"/><use xlink:href="#g12" y="187"/><use xlink:href="#g13" y="204"/><use xlink:href="#g14" y="221"/><use xlink:href="#g15" y="238"/><use xlink:href="#g16" y="255"/><use xlink:href="#g17" y="272"/><use xlink:href="#g18" y="289"/><use xlink:href="#g19" y="306"/><use xlink:href="#g20" y="323"/><use xlink:href="#g21" y="340"/><use xlink:href="#g22" y="374"/><rect x="16" y="391" width="8" height="17" class="foreground"/><use xlink:href="#g23" y="391"/></g></svg>
</svg>